{
  "objects": [
    {
      "type": "search",
      "id": "file-entries-search",
      "attributes": {
        "title": "File Entries",
        "description": "A search to test autocreating searches",
        "columns": [
          "_source"
        ],
        "kibanaSavedObjectMeta": {
          "searchSourceJSON": "{\"index\":\"logfile\",\"highlightAll\":true,\"version\":true,\"query\":{\"language\":\"lucene\",\"query\":\"\"},\"filter\":[]}"
        },
        "sort": [
          "@timestamp",
          "desc"
        ]
      }
    },
    {
      "type": "visualization",
      "id": "file-entries-visualization-scatter",
      "attributes": {
        "savedSearchId": "file-entries-search",
        "title": "File Entries: Scatter",
        "description": "A visualization to test autocreating visualizations",
        "visState": "{\"title\":\"File Entries by Datetime\",\"type\":\"timelion\",\"params\":{\"expression\":\".es(index=logfile*,timefield=datetime,metric=avg:value).points()\",\"interval\":\"auto\"},\"aggs\":[]}"
      }
    },
    {
      "type": "visualization",
      "id": "file-entries-visualization-line",
      "attributes": {
        "savedSearchId": "file-entries-search",
        "title": "File Entries: Line",
        "description": "A visualization to test autocreating visualizations",
        "visState": "{\"title\":\"File Entries by Datetime\",\"type\":\"timelion\",\"params\":{\"expression\":\".es(index=logfile*,timefield=datetime,metric=avg:value).fit(average)\",\"interval\":\"auto\"},\"aggs\":[]}"
      }
    },
    {
      "id": "file-entries-dashboard",
      "type": "dashboard",
      "attributes": {
        "title": "File Entries",
        "description": "A dashboard to test autocreating dashboards",
        "timeRestore": true,
        "timeFrom": "Tue Feb 20 2018 23:06:00 GMT-0000",
        "timeTo": "Tue Feb 20 2018 23:10:00 GMT-0000",
        "panelsJSON":"[{\"panelIndex\":\"1\",\"gridData\":{\"x\":0,\"y\":0,\"w\":6,\"h\":3,\"i\":\"1\"},\"version\":\"6.2.1\",\"type\":\"visualization\",\"id\":\"file-entries-visualization-line\"},{\"panelIndex\":\"2\",\"gridData\":{\"x\":6,\"y\":0,\"w\":6,\"h\":3,\"i\":\"2\"},\"version\":\"6.2.1\",\"type\":\"visualization\",\"id\":\"file-entries-visualization-scatter\"},{\"panelIndex\":\"3\",\"gridData\":{\"x\":0,\"y\":3,\"w\":12,\"h\":6,\"i\":\"3\"},\"version\":\"6.2.1\",\"type\":\"search\",\"id\":\"file-entries-search\"}]"
      }
    }
  ]
}
